
Program received signal SIGSEGV: Segmentation fault - invalid memory reference.

Program received signal SIGSEGV: Segmentation fault - invalid memory reference.

Backtrace for this error:

Program received signal SIGSEGV: Segmentation fault - invalid memory reference.

Backtrace for this error:

Program received signal SIGSEGV: Segmentation fault - invalid memory reference.

Backtrace for this error:

Backtrace for this error:

Program received signal SIGSEGV: Segmentation fault - invalid memory reference.

Backtrace for this error:

Program received signal SIGSEGV: Segmentation fault - invalid memory reference.

Backtrace for this error:

Program received signal SIGSEGV: Segmentation fault - invalid memory reference.

Program received signal SIGSEGV: Segmentation fault - invalid memory reference.

Backtrace for this error:

Backtrace for this error:
#0  0x7f82a6cf18da
#1  0x7f82a6cf0ae3
#2  0x7f82a694883f
#3  0x55ef0b50c551
#4  0x55ef0b5109bd
#5  0x55ef0b5093ce
#6  0x7f82a693509a
#7  0x55ef0b509409
#8  0xffffffffffffffff
#0  0x7fcb34c9e8da
#1  0x7fcb34c9dae3
#2  0x7fcb348f583f
#3  0x557d5fb0b551
#4  0x557d5fb0f9bd
#5  0x557d5fb083ce
#6  0x7fcb348e209a
#7  0x557d5fb08409
#8  0xffffffffffffffff
#0  0x7f896aede8da
#0  0x7f1fe62448da
#1  0x7f1fe6243ae3
#2  0x7f1fe5e9b83f
#3  0x5636cbbf1551
#4  0x5636cbbf59bd
#5  0x5636cbbee3ce
#6  0x7f1fe5e8809a
#7  0x5636cbbee409
#8  0xffffffffffffffff
#1  0x7f896aeddae3
#2  0x7f896ab3583f
#3  0x55b4d147f551
#4  0x55b4d14839bd
#5  0x55b4d147c3ce
#6  0x7f896ab2209a
#7  0x55b4d147c409
#8  0xffffffffffffffff
#0  0x7fd454c408da
#1  0x7fd454c3fae3
#2  0x7fd45489783f
#3  0x5648928c3551
#4  0x5648928c79bd
#5  0x5648928c03ce
#6  0x7fd45488409a
#7  0x5648928c0409
#8  0xffffffffffffffff
#0  0x7f0b37fab8da
#1  0x7f0b37faaae3
#2  0x7f0b37c0283f
#3  0x55edfbefb551
#4  0x55edfbeff9bd
#5  0x55edfbef83ce
#6  0x7f0b37bef09a
#7  0x55edfbef8409
#8  0xffffffffffffffff
#0  0x7f762213c8da
#1  0x7f762213bae3
#2  0x7f7621d9383f
#3  0x55e7034da551
#4  0x55e7034de9bd
#5  0x55e7034d73ce
#6  0x7f7621d8009a
#7  0x55e7034d7409
#8  0xffffffffffffffff
#0  0x7f92c457b8da
#1  0x7f92c457aae3
#2  0x7f92c41d283f
#3  0x55b69d07c551
#4  0x55b69d0809bd
#5  0x55b69d0793ce
#6  0x7f92c41bf09a
#7  0x55b69d079409
#8  0xffffffffffffffff
--------------------------------------------------------------------------
Primary job  terminated normally, but 1 process returned
a non-zero exit code. Per user-direction, the job has been aborted.
--------------------------------------------------------------------------
--------------------------------------------------------------------------
mpirun noticed that process rank 1 with PID 0 on node instance-120 exited on signal 11 (Segmentation fault).
--------------------------------------------------------------------------
