--------------------------------------------------------------------------
MPI_ABORT was invoked on rank 24 in communicator MPI_COMM_WORLD
with errorcode 16.

NOTE: invoking MPI_ABORT causes Open MPI to kill all MPI processes.
You may or may not see output from other processes, depending on
exactly when Open MPI kills them.
--------------------------------------------------------------------------
[instance-706:10276] PMIX ERROR: UNREACHABLE in file ../../../src/server/pmix_server.c at line 2079
[instance-701:10186] PMIX ERROR: UNREACHABLE in file ../../../src/server/pmix_server.c at line 2079
[instance-708:10173] PMIX ERROR: UNREACHABLE in file ../../../src/server/pmix_server.c at line 2079
[instance-707:10169] PMIX ERROR: UNREACHABLE in file ../../../src/server/pmix_server.c at line 2079
[instance-704:10179] PMIX ERROR: UNREACHABLE in file ../../../src/server/pmix_server.c at line 2079
[instance-702:10176] PMIX ERROR: UNREACHABLE in file ../../../src/server/pmix_server.c at line 2079
[warn] Epoll MOD(1) on fd 21 failed. Old events were 6; read change was 0 (none); write change was 2 (del); close change was 0 (none): Bad file descriptor
[warn] Epoll MOD(1) on fd 21 failed. Old events were 6; read change was 0 (none); write change was 2 (del); close change was 0 (none): Bad file descriptor
[instance-711:10180] PMIX ERROR: UNREACHABLE in file ../../../src/server/pmix_server.c at line 2079
[instance-711:10180] PMIX ERROR: UNREACHABLE in file ../../../src/server/pmix_server.c at line 2079
[warn] Epoll MOD(1) on fd 23 failed. Old events were 6; read change was 0 (none); write change was 2 (del); close change was 0 (none): Bad file descriptor
[instance-710:10172] PMIX ERROR: UNREACHABLE in file ../../../src/server/pmix_server.c at line 2079
[warn] Epoll MOD(1) on fd 23 failed. Old events were 6; read change was 0 (none); write change was 2 (del); close change was 0 (none): Bad file descriptor
[warn] Epoll MOD(1) on fd 23 failed. Old events were 6; read change was 0 (none); write change was 2 (del); close change was 0 (none): Bad file descriptor
[instance-709:10171] PMIX ERROR: UNREACHABLE in file ../../../src/server/pmix_server.c at line 2079
[warn] Epoll MOD(1) on fd 23 failed. Old events were 6; read change was 0 (none); write change was 2 (del); close change was 0 (none): Bad file descriptor
[warn] Epoll MOD(1) on fd 23 failed. Old events were 6; read change was 0 (none); write change was 2 (del); close change was 0 (none): Bad file descriptor
[warn] Epoll MOD(1) on fd 21 failed. Old events were 6; read change was 0 (none); write change was 2 (del); close change was 0 (none): Bad file descriptor
[instance-700:12144] 24 more processes have sent help message help-mpi-api.txt / mpi-abort
[instance-700:12144] Set MCA parameter "orte_base_help_aggregate" to 0 to see all help / error messages
