

 NAS Parallel Benchmarks 3.4 -- BT Benchmark

 No input file inputbt.data. Using compiled defaults
 Size:  408x 408x 408  (class D)
 Iterations:  250    dt:   0.0000200
 WARNING: Number of active processes:    25
 Total number of processes:    32

3 total processes killed (some possibly by mpirun during cleanup)
