

 NAS Parallel Benchmarks 3.4 -- LU Benchmark

 Size: 1020x1020x1020  (class E)
 Iterations:  300
 Total number of processes:    32

2 total processes killed (some possibly by mpirun during cleanup)
